matriz=[]
listado=[]
def abrir_archivo(nombre=None):
    archivo = open(nombre, "r")
    return archivo

def reporte_W(texto=None):
    reporte = open("medicamento.txt", "w")
    reporte.write(texto)
    reporte.close()

def reporte_a(texto):
    reporte = open("medicamento-append.txt", "a")
    reporte.write(texto)
    reporte.close()
def creador_matriz(notas,filas,matriz):   
    for indice in range(filas):
        print(" ")
        for subindice in range(filas/2): 
            matriz.append(notas)
        print(matriz)      

def procesa_archivo(archivo=None):
    texto = ""

    for linea in archivo:
        substring = linea.strip().split(":")
        nombre = substring[0]
        notas = substring[1:len(substring)]
        reporte_a(texto)
        listado.append(notas)
        
        #print(notas)
    texto = texto + f"{listado}\n"   
    print(texto)
    reporte_W(texto)
def busqueda(listado):
    i=0
    j=0
    search=input("¿Cual es el nombre del producto que busca?")
    matriz.append(search)
    for x in listado:
        if x==matriz:
            i=i+2
            print("Su producto es", x," vale ",listado[i])
            j=1
        i=i+1
    if j==0:
        print("Su producto ",search," no se encuentra en nuestros datos")
        print("Corrija la escritura o busque otro producto")    
def eliminador(listado): 
    i=0
    j=0
    search=input("¿Cual es el nombre del producto que busca para eliminar?")
    matriz.append(search)
    for x in listado:
        if x==matriz:
            listado.pop(i-1)
            listado.pop(i-1)
            listado.pop(i-1)
            listado.pop(i-1)  
            j=1
        i=i+1 
    if j==0:
        print("Su producto ",search," no se encuentra en nuestros datos")
        print("Corrija la escritura o ya esta eliminado")  
    print (listado)
        
def eleccion():
    print("   ")
    print(" Welcome, que desea hacer con la base de datos?")
    print("   ")   
    desicion=input("(Buscar o Eliminar un dato)")
    if desicion==("Buscar"):
        busqueda(listado)  
    if desicion==("Eliminar"):
        eliminador(listado)        

#ejecution

notas = abrir_archivo("texto0.txt")
procesa_archivo(notas)
eleccion()
